Anomaly detection in river networks
…
?conduits::estimate_dt

Estimate_dt <- cond_ccf %>% 
  conduits::estimate_dt(new_data = data_lag_estim, k_min = 1, 
              k_max = 24)

Estimate_dt$data_dt

## # A tibble: 26,496 x 8
##    Timestamp           level_upstream temperature_upstream turbidity_upstream
##    <dttm>                       <dbl>                <dbl>              <dbl>
##  1 2019-10-01 00:00:00           251.                 26.4               2.08
##  2 2019-10-01 00:05:00           251.                 26.4               1.68
##  3 2019-10-01 00:10:00           251.                 26.4               1.67
##  4 2019-10-01 00:15:00           251.                 26.4               1.54
##  5 2019-10-01 00:20:00           251.                 26.4               1.48
##  6 2019-10-01 00:25:00           251.                 26.4               1.38
##  7 2019-10-01 00:30:00           251.                 26.4               1.50
##  8 2019-10-01 00:35:00           251.                 26.4               1.42
##  9 2019-10-01 00:40:00           251.                 26.4               1.40
## 10 2019-10-01 00:45:00           251.                 26.3               1.39
## # ... with 26,486 more rows, and 4 more variables: turbidity_downstream <dbl>,
## #   dt <dbl>, ccf <dbl>, pvalue <dbl>
…
